Master en Big Data. Fundamentos Matemáticos del Análisis de Datos (FMAD).
…
Calculamos el nº total de casos de tuberculosis por país, año y sexo:

Representación mediante tabla:

who %>%
  group_by(country, year, sex) %>%
  summarise(cases = sum(cases))

## `summarise()` has grouped output by 'country', 'year'. You can override using the `.groups` argument.

## # A tibble: 6,921 x 4
## # Groups:   country, year [3,484]
##    country      year sex   cases
##    <chr>       <int> <chr> <int>
##  1 Afghanistan  1997 f       102
##  2 Afghanistan  1997 m        26
##  3 Afghanistan  1998 f      1207
##  4 Afghanistan  1998 m       571
##  5 Afghanistan  1999 f       517
##  6 Afghanistan  1999 m       228
##  7 Afghanistan  2000 f      1751
##  8 Afghanistan  2000 m       915
##  9 Afghanistan  2001 f      3062
## 10 Afghanistan  2001 m      1577
## # ... with 6,911 more rows
…
El nº de casos hasta 1995 era muy bajo en comparación a los demás años y lo mismo ocurre con algunos países:

who %>%
  group_by(year) %>%
  summarise(cases = sum(cases))

## # A tibble: 34 x 2
##     year cases
##    <int> <int>
##  1  1980   959
##  2  1981   805
##  3  1982   824
##  4  1983   786
##  5  1984   814
##  6  1985   799
##  7  1986   754
##  8  1987   670
##  9  1988   682
## 10  1989   654
## # ... with 24 more rows

who %>%
  group_by(country) %>%
  summarise(cases = sum(cases)) %>% 
  arrange(cases)

## # A tibble: 219 x 2
##    country                           cases
##    <chr>                             <int>
##  1 Bonaire, Saint Eustatius and Saba     0
##  2 Tokelau                               0
##  3 Anguilla                              2
##  4 San Marino                            2
##  5 Monaco                                3
##  6 Niue                                  3
##  7 Montserrat                            4
##  8 British Virgin Islands                5
##  9 US Virgin Islands                     7
## 10 Bermuda                               8
## # ... with 209 more rows
…
